/Users/tester/Documents/workspace-rest/fcache/src/main/java/ai/robot/rest/memory/MemoryStorage.java
/Users/tester/Documents/workspace-rest/fcache/src/main/java/ai/robot/rest/service/ClientService.java
/Users/tester/Documents/workspace-rest/fcache/src/main/java/ai/robot/rest/controller/SessionController.java
/Users/tester/Documents/workspace-rest/fcache/src/main/java/ai/robot/rest/service/IClientService.java
/Users/tester/Documents/workspace-rest/fcache/src/main/java/ai/robot/rest/schedulingtasks/ScheduledTasks.java
/Users/tester/Documents/workspace-rest/fcache/src/main/java/ai/robot/rest/SpringCacheApplication.java
